Independent Learning from Tidy Tuesday Screencast Part 1 | Inside the Tidyverse
…
This graph is showing the same data as the first graph, but we are aggregating over weeks, thus showing a clearer trend.

r_download_gaps <- r_downloads_year %>% 
  mutate(datetime = as.POSIXlt(date) + time) %>% 
  arrange(datetime) %>% 
  group_by(ip_id) %>% 
  mutate(gap = as.numeric(datetime - lag(datetime))) %>% 
  filter(!is.na(gap))

r_download_gaps

## # A tibble: 934,367 x 10
## # Groups:   ip_id [3,736]
##    date       time    size version os    country ip_id country_name
##    <date>     <drt>  <dbl> <chr>   <chr> <chr>   <dbl> <chr>       
##  1 2017-10-20 00:12 7.82e7 3.4.2   win   TW        913 Taiwan      
##  2 2017-10-20 00:19 6.42e7 3.4.2   osx   US        915 United Stat…
##  3 2017-10-20 00:20 7.82e7 3.4.2   win   ID        921 Indonesia   
##  4 2017-10-20 00:43 1.11e6 3.4.2   win   US       1284 United Stat…
##  5 2017-10-20 00:53 6.42e7 latest  osx   US         27 United Stat…
##  6 2017-10-20 00:55 2.17e7 3.4.2   src   US       1468 United Stat…
##  7 2017-10-20 01:05 8.29e6 3.4.2   win   AU       1766 Australia   
##  8 2017-10-20 01:11 7.82e7 3.4.2   win   JP        125 Japan       
##  9 2017-10-20 01:18 7.82e7 3.4.2   win   JP        125 Japan       
## 10 2017-10-20 01:29 7.82e7 3.4.2   win   JP       1921 Japan       
## # … with 934,357 more rows, and 2 more variables: datetime <dttm>,
## #   gap <dbl>
…
package_downloads <- read_csv("http://cran-logs.rstudio.com/2018/2018-10-27.csv.gz")

package_downloads %>% 
  filter(country %in% c("US", "IN")) %>% 
  count(country, package, sort = TRUE) %>% 
  spread(country, n, fill = 0) %>% 
  mutate(total = US + IN,
         IN = (IN + 1) / sum(IN + 1),
         US = (US + 1) / sum(US + 1),
         ratio = US / IN) %>% 
  filter(total > 1000) %>% 
  arrange(desc(total)) %>% 
  arrange(desc(ratio))

## # A tibble: 158 x 5
##    package              IN      US total  ratio
##    <chr>             <dbl>   <dbl> <dbl>  <dbl>
##  1 schumaker     0.0000121 0.00232  1136 191.  
##  2 Ckmeans.1d.dp 0.0000243 0.00277  1354 114.  
##  3 copula        0.0000364 0.00246  1205  67.5 
##  4 bold          0.0000729 0.00212  1044  29.2 
##  5 Rserve        0.000279  0.00231  1150   8.26
##  6 covr          0.000437  0.00237  1193   5.41
##  7 devtools      0.00219   0.0108   5474   4.95
##  8 mitml         0.000437  0.00202  1023   4.62
##  9 rgdal         0.000546  0.00247  1251   4.51
## 10 jomo          0.000461  0.00202  1024   4.37
## # … with 148 more rows
…
